{
	"id": "8d1430d3-3fc0-43f5-8e37-d65540ab1683",
	"name": "Trello API",
	"values": [
		{
			"key": "url",
			"value": "http://example.com",
			"enabled": true
		},
		{
			"key": "environment",
			"value": "production",
			"enabled": true
		},
		{
			"key": "BoardName",
			"value": "my board name1482",
			"enabled": true
		},
		{
			"key": "boardID",
			"value": "5de72b22afa8ab160f3e2ea2",
			"enabled": true
		},
		{
			"key": "idboard",
			"value": "5de72b226ceb500406b6405c",
			"enabled": true
		},
		{
			"key": "cardId",
			"value": "5de72b23c8777133ae406477",
			"enabled": true
		},
		{
			"key": "idList_Done",
			"value": "5de72b23ed419a1608024e35",
			"enabled": true
		},
		{
			"key": "trelloKey",
			"value": "445e9e303743f79ee5d79554528cdc5e",
			"enabled": true
		},
		{
			"key": "trelloToken",
			"value": "af7a0c2c5ce6e2b9614bdf744be19ac1d4a7c0eb104339605defd4177edf356f",
			"enabled": true
		}
	],
	"_postman_variable_scope": "environment",
	"_postman_exported_at": "2019-12-08T09:16:30.477Z",
	"_postman_exported_using": "Postman/7.12.0"
}